<svg width="22" height="12" viewBox="0 0 22 12" fill="none" xmlns="http://www.w3.org/2000/svg">
<path d="M19.869 4.79958L18.2785 4.07331L16.8747 1.83364C16.4689 1.18446 15.7548 0.790896 14.988 0.794953H9.00742C8.31361 0.794953 7.65632 1.11549 7.23435 1.66729L5.42071 4.04085L2.39797 4.86856C1.63112 5.07954 1.09961 5.78147 1.09961 6.57671V7.73306C1.09961 8.71089 1.87862 9.51831 2.85645 9.51831H3.11612C3.42854 10.7233 4.65792 11.4456 5.86296 11.1331C6.65415 10.9262 7.27493 10.3095 7.4778 9.51831H14.2942C14.6066 10.7233 15.836 11.4456 17.041 11.1331C17.8322 10.9262 18.453 10.3095 18.6559 9.51831H19.1427C20.1206 9.51831 20.8996 8.71089 20.8996 7.73306V6.41442C20.9036 5.7206 20.4979 5.08765 19.869 4.79958ZM5.29493 10.3866C4.49969 10.3866 3.85456 9.74146 3.85456 8.94622C3.85456 8.15097 4.49969 7.50585 5.29493 7.50585C6.09018 7.50585 6.7353 8.15097 6.7353 8.94622C6.73935 9.7374 6.09423 10.3825 5.29493 10.3866ZM16.473 10.3866C15.6777 10.3866 15.0326 9.74146 15.0326 8.94622C15.0326 8.15097 15.6777 7.50585 16.473 7.50585C17.2682 7.50585 17.9134 8.15097 17.9134 8.94622C17.9174 9.7374 17.2723 10.3825 16.473 10.3866ZM19.1427 8.70683H18.7127C18.5788 7.46933 17.463 6.57671 16.2255 6.71466C15.1746 6.82827 14.3469 7.66003 14.2333 8.70683H7.5346C7.40071 7.46933 6.28493 6.57671 5.04743 6.71466C3.99657 6.82827 3.16887 7.66003 3.05526 8.70683H2.85239C2.32088 8.70683 1.90703 8.26458 1.90703 7.73306V6.57671C1.90297 6.14257 2.19104 5.76524 2.60895 5.64757L5.76964 4.78335C5.85485 4.75901 5.93194 4.71032 5.98468 4.63729L7.87542 2.15823C8.14726 1.8093 8.56517 1.60643 9.00742 1.60643H14.988C15.4749 1.60237 15.9334 1.84987 16.189 2.26372L17.6577 4.60888C17.6983 4.67786 17.7632 4.73061 17.8322 4.76306L19.5282 5.53802C19.869 5.69626 20.0881 6.03708 20.084 6.41442V7.73306H20.0881C20.0881 8.26458 19.6743 8.70683 19.1427 8.70683Z" fill="#231F20" stroke="#231F20" stroke-width="0.4"/>
</svg>
