<svg width="90" height="99" viewBox="0 0 90 99" fill="none" xmlns="http://www.w3.org/2000/svg">
<circle opacity="0.5" cx="64" cy="65" r="25" stroke="#5495F1" stroke-width="2"/>
<circle opacity="0.75" cx="45" cy="31" r="25" stroke="#5495F1" stroke-width="2"/>
<circle cx="26" cy="65" r="25" stroke="#5495F1" stroke-width="2"/>
</svg>
