<svg width="100" height="100" viewBox="0 0 100 100" fill="none" xmlns="http://www.w3.org/2000/svg">
<g clip-path="url(#clip0)">
<path d="M62.9926 7.00693C68.9387 12.9531 61.2262 30.3062 45.7662 45.7662C30.3062 61.2262 12.9531 68.9387 7.00693 62.9926C1.06077 57.0464 8.77328 39.6933 24.2333 24.2333C39.6933 8.77328 57.0464 1.06077 62.9926 7.00693Z" stroke="#66A9FF" stroke-width="2"/>
<path opacity="0.75" d="M92.9928 37.0069C98.939 42.9531 91.2265 60.3062 75.7665 75.7662C60.3065 91.2262 42.9533 98.9387 37.0072 92.9926C31.061 87.0464 38.7735 69.6933 54.2335 54.2333C69.6935 38.7733 87.0467 31.0608 92.9928 37.0069Z" stroke="#66A9FF" stroke-width="2"/>
<path opacity="0.5" d="M34 34V66H66V34H34Z" stroke="#66A9FF" stroke-width="2"/>
</g>
<defs>
<clipPath id="clip0">
<rect width="100" height="100" fill="white"/>
</clipPath>
</defs>
</svg>
