<svg width="75" height="31" viewBox="0 0 75 31" fill="none" xmlns="http://www.w3.org/2000/svg">
<path d="M70.1792 18.5632C70.1792 17.1018 71.3087 16.1157 72.5897 16.1157C73.8717 16.1157 75.0001 17.1018 75.0001 18.5632C75.0001 20.0245 73.8717 21.0117 72.5897 21.0117C71.3087 21.0117 70.1792 20.0245 70.1792 18.5632ZM72.6019 18.2867C73.0126 18.2867 73.1283 18.0617 73.1283 17.8651C73.1283 17.6286 73.0126 17.4446 72.6019 17.4446H72.0787V18.2867H72.6019ZM72.0787 18.6673V20.0109H71.6548V17.0493H72.7054C73.3198 17.0493 73.6034 17.3258 73.6034 17.8651C73.6034 18.1952 73.3843 18.4591 73.1037 18.497V18.5096C73.3454 18.5495 73.4355 18.7745 73.4877 19.1824C73.5266 19.4442 73.5768 19.9057 73.6679 20.0109H73.1672C73.0515 19.7344 73.0648 19.3401 72.9747 19.0111C72.8989 18.7608 72.7699 18.6673 72.4883 18.6673H72.0787ZM74.5383 18.5632C74.5383 17.3783 73.7191 16.51 72.5897 16.51C71.4612 16.51 70.641 17.3783 70.641 18.5632C70.641 19.748 71.4612 20.6154 72.5897 20.6154C73.7191 20.6154 74.5383 19.748 74.5383 18.5632Z" fill="#40B93C"/>
<path d="M61.8272 20.5859L59.0481 17.3857L56.2946 20.5859H50.502L56.1646 14.0519L50.502 7.51795H56.4759L59.2816 10.6919L61.9829 7.51795H67.75L62.1139 14.0257L67.8268 20.5859H61.8272Z" fill="#40B93C"/>
<path d="M39.3721 20.5859V0.000981938H50.5008V4.58897H44.0865V7.51796H50.5008V11.9335H44.0865V15.9853H50.5008V20.5859H39.3721Z" fill="#40B93C"/>
<path d="M31.8285 17.4505C30.098 17.4505 29.0218 15.7947 29.0218 14.0663C29.0218 12.2191 29.9587 10.4424 31.8285 10.4424C33.7679 10.4424 34.5411 12.2191 34.5411 14.0663C34.5411 15.8189 33.7219 17.4505 31.8285 17.4505ZM15.1468 11.9921C15.4427 10.6863 16.4309 9.83054 17.6637 9.83054C19.0215 9.83054 19.9585 10.66 20.2053 11.9921H15.1468ZM34.6772 -0.00145362V8.42386H34.626C33.5867 7.19697 32.2883 6.77013 30.782 6.77013C27.6947 6.77013 25.3702 8.92535 24.5541 11.7734C23.6233 8.63518 21.2231 6.71126 17.6637 6.71126C14.773 6.71126 12.4916 8.04328 11.2997 10.2143V7.51657H5.32574V4.58758H11.8455V-0.00145362H0V20.5845H5.32574V11.9311H10.6341C10.4754 12.5671 10.3904 13.2484 10.3904 13.9654C10.3904 18.2601 13.5862 21.2732 17.6637 21.2732C21.0931 21.2732 23.353 19.6205 24.547 16.6074H19.9841C19.3656 17.5126 18.8976 17.7817 17.6637 17.7817C16.2322 17.7817 14.9983 16.5001 14.9983 14.9789H24.292C24.6954 18.3904 27.283 21.332 30.8332 21.332C32.3651 21.332 33.769 20.5583 34.626 19.2515H34.6772V20.5845H39.3722V-0.00145362H34.6772Z" fill="#412C91"/>
<path d="M42.2738 30.4502C42.88 30.4502 43.3551 30.3587 43.8231 30.1947V27.8019H42.0659V27.252H44.4774V30.5931C43.7238 30.837 43.138 31 42.2543 31C40.0712 31 38.8711 29.2685 38.8711 27.1911C38.8711 25.1115 39.8142 23.38 41.9963 23.38C43.177 23.38 44.1303 24.0224 44.3873 25.1525H43.6736C43.5251 24.3682 42.7407 23.9309 42.0168 23.9309C40.2197 23.9309 39.5561 25.6109 39.5561 27.1911C39.5561 28.7701 40.4777 30.4502 42.2738 30.4502Z" fill="#412C91"/>
<path d="M47.7403 26.2016C46.7388 26.2016 46.3917 27.0678 46.3917 27.9646V30.8789H45.7865V27.2424C45.7865 26.7419 45.7763 26.232 45.7568 25.7243H46.3507L46.3917 26.4665C46.6887 25.8756 47.1843 25.6012 47.8499 25.6012C47.9389 25.6012 48.0383 25.6118 48.1274 25.6212V26.2436C47.9891 26.2226 47.8796 26.2016 47.7403 26.2016Z" fill="#412C91"/>
<path d="M50.7124 30.5302C51.9125 30.5302 52.4194 29.4105 52.4194 28.2993C52.4194 27.1891 51.9125 26.0684 50.7124 26.0684C49.5113 26.0684 49.0054 27.1891 49.0054 28.2993C49.0054 29.4105 49.5113 30.5302 50.7124 30.5302ZM50.7124 30.998C49.1836 30.998 48.3613 29.7869 48.3613 28.2993C48.3613 26.8127 49.1836 25.5995 50.7124 25.5995C52.2392 25.5995 53.0635 26.8127 53.0635 28.2993C53.0635 29.7869 52.2392 30.998 50.7124 30.998Z" fill="#412C91"/>
<path d="M57.6966 30.8791L57.6772 30.1043C57.33 30.7046 56.7832 31 56.05 31C54.7107 31 54.2632 30.2462 54.2632 28.952V25.7234H54.8684V28.7092C54.8684 29.6659 55.0875 30.4817 56.1483 30.4817C57.2809 30.4817 57.6577 29.4524 57.6577 28.4327V25.7234H58.2639V29.3389C58.2639 29.8498 58.2721 30.3692 58.2926 30.8791H57.6966Z" fill="#412C91"/>
<path d="M60.2195 25.7232L60.239 26.498C60.5861 25.8967 61.1319 25.6002 61.8661 25.6002C63.2055 25.6002 63.6519 26.3551 63.6519 27.6482V30.8789H63.0478V27.8931C63.0478 26.9364 62.8286 26.1196 61.7678 26.1196C60.6352 26.1196 60.2594 27.1499 60.2594 28.1675V30.8789H59.6532V27.2613C59.6532 26.7514 59.644 26.232 59.6235 25.7232H60.2195Z" fill="#412C91"/>
<path d="M65.4943 28.3002C65.4943 29.402 65.9397 30.4817 67.1306 30.4817C68.2529 30.4817 68.6584 29.5334 68.6584 28.3002C68.6584 27.0691 68.2529 26.1197 67.1306 26.1197C65.9397 26.1197 65.4943 27.2005 65.4943 28.3002ZM68.6584 23.5019H69.2646V29.3389C69.2646 29.8498 69.2646 30.3692 69.2933 30.8791H68.6984L68.6799 30.1043C68.3021 30.714 67.8054 31 67.062 31C65.5137 31 64.8481 29.6869 64.8481 28.3002C64.8481 26.9156 65.5137 25.6004 67.062 25.6004C67.7553 25.6004 68.3021 25.8758 68.6584 26.4667V23.5019Z" fill="#412C91"/>
</svg>
